  index  world      root    POS     pos      future
-------  ---------  ------  ------  -------  ---------------------
      0  بسیاری     ---     dsd     ---      ---
      1  از         ---     ffgfg   ---      wwwwwww = --- |
      2  شما        ---     hhjjjh  ---      ---
      3  می‌گویید    ---     ghghgh  cvcvcvc  ';;l;ll;l = gfgfgfg |
      4  که         ---     ---     ---      ---
      5  از         ---     ---     ---      ---
      6  شکست       ---     ---     ---      ---
      7  خوردن      ---     ---     ---      ---
      8  خسته       ---     ---     ---      ---
      9  شده‌اید     ---     ---     ---      ---
     10  ؛          ---     ---     ---      ---
     11  می‌گویید    ---     ---     ---      ---
     12  که         ---     ---     ---      ---
     13  دیگر       ---     ---     ---      ---
     14  نمی‌خواهید  ---     ---     ---      ---
     15  رابطه      ---     ---     ---      ---
     16  دیگری      ---     ---     ---      ---
     17  در         ---     ---     ---      ---
     18  زندگی‌تان   ---     ---     ---      ---
     19  خراب       ---     ---     ---      ---
     20  شود        ---     ---     ---      ---
     21  ؛          ---     ---     ---      ---
     22  دیگر       ---     ---     ---      ---
     23  از         ---     ---     ---      ---
     24  مأیوس      ---     ---     ---      ---
     25  بودن       ---     ---     ---      ---
     26  خسته       ---     ---     ---      ---
     27  شده‌اید…    ---     ---     ---      ---
     28  ما         ---     ---     ---      ---
     29  درک        ---     ---     ---      ---
     30  می‌کنیم     ---     ---     ---      ---
     31  که         ---     ---     ---      ---
     32  از         ---     ---     ---      ---
     33  بسیاری     ---     ---     ---      ---
     34  از         ---     ---     ---      ---
     35  مشکلات     ---     ---     ---      ---
     36  خسته       ---     ---     ---      ---
     37  شده‌اید     ---     ---     ---      ---
     38  و          ---     ---     ---      ---
     39  می‌ترسید    ---     ---     ---      ---
     40  .          ---     ---     ---      ---


  index  world    root    POS    pos    future
-------  -------  ------  -----  -----  --------
      0  من       ---     ---    ---    ---
      1  می‌توانم  ---     ---    ---    ---
      2  !        ---     ---    ---    ---


  index  world     root    POS    pos    future
-------  --------  ------  -----  -----  --------
      0  خواهش     ---     ---    ---    ---
      1  ما        ---     ---    ---    ---
      2  از        ---     ---    ---    ---
      3  شما       ---     ---    ---    ---
      4  این       ---     ---    ---    ---
      5  است       ---     ---    ---    ---
      6  که        ---     ---    ---    ---
      7  پیشاپیش   ---     ---    ---    ---
      8  نگران     ---     ---    ---    ---
      9  اتفاقاتی  ---     ---    ---    ---
     10  که        ---     ---    ---    ---
     11  امسال     ---     ---    ---    ---
     12  قرار      ---     ---    ---    ---
     13  است       ---     ---    ---    ---
     14  رخ        ---     ---    ---    ---
     15  بدهد      ---     ---    ---    ---
     16  ،         ---     ---    ---    ---
     17  نباشید    ---     ---    ---    ---
     18  !         ---     ---    ---    ---


  index  world     root    POS    pos    future
-------  --------  ------  -----  -----  --------
      0  حتی       ---     ---    ---    ---
      1  لازم      ---     ---    ---    ---
      2  نیست      ---     ---    ---    ---
      3  نگران     ---     ---    ---    ---
      4  اتفاقاتی  ---     ---    ---    ---
      5  که        ---     ---    ---    ---
      6  این       ---     ---    ---    ---
      7  ماه       ---     ---    ---    ---
      8  قرار      ---     ---    ---    ---
      9  است       ---     ---    ---    ---
     10  رخ        ---     ---    ---    ---
     11  بدهد      ---     ---    ---    ---
     12  ،         ---     ---    ---    ---
     13  باشید     ---     ---    ---    ---
     14  !         ---     ---    ---    ---


  index  world     root    POS    pos    future
-------  --------  ------  -----  -----  --------
      0  تنها      ---     ---    ---    ---
      1  کاری      ---     ---    ---    ---
      2  که        ---     ---    ---    ---
      3  شما       ---     ---    ---    ---
      4  باید      ---     ---    ---    ---
      5  انجام     ---     ---    ---    ---
      6  دهید      ---     ---    ---    ---
      7  ،         ---     ---    ---    ---
      8  این       ---     ---    ---    ---
      9  است       ---     ---    ---    ---
     10  که        ---     ---    ---    ---
     11  فقط       ---     ---    ---    ---
     12  به        ---     ---    ---    ---
     13  امروزتان  ---     ---    ---    ---
     14  فکر       ---     ---    ---    ---
     15  کنید      ---     ---    ---    ---
     16  .         ---     ---    ---    ---


  index  world     root    POS    pos    future
-------  --------  ------  -----  -----  --------
      0  آیا       ---     ---    ---    ---
      1  واقعا     ---     ---    ---    ---
      2  می‌توانید  ---     ---    ---    ---
      3  امروز     ---     ---    ---    ---
      4  را        ---     ---    ---    ---
      5  درست      ---     ---    ---    ---
      6  سپری      ---     ---    ---    ---
      7  کنید      ---     ---    ---    ---
      8  ؟         ---     ---    ---    ---


  index  world      root    POS    pos    future
-------  ---------  ------  -----  -----  --------
      0  از         ---     ---    ---    ---
      1  شما        ---     ---    ---    ---
      2  می‌خواهیم   ---     ---    ---    ---
      3  که         ---     ---    ---    ---
      4  با         ---     ---    ---    ---
      5  صدای       ---     ---    ---    ---
      6  بلند       ---     ---    ---    ---
      7  ،          ---     ---    ---    ---
      8  این        ---     ---    ---    ---
      9  را         ---     ---    ---    ---
     10  با         ---     ---    ---    ---
     11  خود        ---     ---    ---    ---
     12  تکرار      ---     ---    ---    ---
     13  کنید       ---     ---    ---    ---
     14  :          ---     ---    ---    ---
     15  «          ---     ---    ---    ---
     16  می‌توانم    ---     ---    ---    ---
     17  ،          ---     ---    ---    ---
     18  این        ---     ---    ---    ---
     19  کار        ---     ---    ---    ---
     20  را         ---     ---    ---    ---
     21  خواهم_کرد  ---     ---    ---    ---
     22  ،          ---     ---    ---    ---
     23  و          ---     ---    ---    ---
     24  باید       ---     ---    ---    ---
     25  انجامش     ---     ---    ---    ---
     26  دهم        ---     ---    ---    ---
     27  !          ---     ---    ---    ---
     28  »          ---     ---    ---    ---
     29  این        ---     ---    ---    ---
     30  سه         ---     ---    ---    ---
     31  جمله       ---     ---    ---    ---
     32  را         ---     ---    ---    ---
     33  با         ---     ---    ---    ---
     34  تمام       ---     ---    ---    ---
     35  وجودتان    ---     ---    ---    ---
     36  حس         ---     ---    ---    ---
     37  کنید       ---     ---    ---    ---
     38  و          ---     ---    ---    ---
     39  با         ---     ---    ---    ---
     40  صدای       ---     ---    ---    ---
     41  بلند       ---     ---    ---    ---
     42  تکرار      ---     ---    ---    ---
     43  کنید       ---     ---    ---    ---
     44  .          ---     ---    ---    ---


  index  world      root    POS    pos    future
-------  ---------  ------  -----  -----  --------
      0  اگر        ---     ---    ---    ---
      1  هر         ---     ---    ---    ---
      2  مشکلی      ---     ---    ---    ---
      3  که         ---     ---    ---    ---
      4  دارید      ---     ---    ---    ---
      5  ،          ---     ---    ---    ---
      6  و          ---     ---    ---    ---
      7  هر         ---     ---    ---    ---
      8  «          ---     ---    ---    ---
      9  مسئله‌ای    ---     ---    ---    ---
     10  »          ---     ---    ---    ---
     11  شما        ---     ---    ---    ---
     12  را         ---     ---    ---    ---
     13  مأیوس      ---     ---    ---    ---
     14  کرده       ---     ---    ---    ---
     15  و          ---     ---    ---    ---
     16  باعث       ---     ---    ---    ---
     17  شده        ---     ---    ---    ---
     18  که         ---     ---    ---    ---
     19  با         ---     ---    ---    ---
     20  (          ---     ---    ---    ---
     21  خود        ---     ---    ---    ---
     22  بگویید     ---     ---    ---    ---
     23  )          ---     ---    ---    ---
     24  :          ---     ---    ---    ---
     25  «          ---     ---    ---    ---
     26  من         ---     ---    ---    ---
     27  دیگر       ---     ---    ---    ---
     28  نمی‌توانم   ---     ---    ---    ---
     29  با         ---     ---    ---    ---
     30  این        ---     ---    ---    ---
     31  شرایط      ---     ---    ---    ---
     32  کنار       ---     ---    ---    ---
     33  بیایم      ---     ---    ---    ---
     34  »          ---     ---    ---    ---
     35  ،          ---     ---    ---    ---
     36  با         ---     ---    ---    ---
     37  تمام       ---     ---    ---    ---
     38  وجود       ---     ---    ---    ---
     39  این        ---     ---    ---    ---
     40  سه         ---     ---    ---    ---
     41  جمله       ---     ---    ---    ---
     42  را         ---     ---    ---    ---
     43  با         ---     ---    ---    ---
     44  خود        ---     ---    ---    ---
     45  تکرار      ---     ---    ---    ---
     46  کنید       ---     ---    ---    ---
     47  :          ---     ---    ---    ---
     48  «          ---     ---    ---    ---
     49  من         ---     ---    ---    ---
     50  می‌توانم    ---     ---    ---    ---
     51  از         ---     ---    ---    ---
     52  پس         ---     ---    ---    ---
     53  این        ---     ---    ---    ---
     54  مشکل       ---     ---    ---    ---
     55  بر         ---     ---    ---    ---
     56  بیایم      ---     ---    ---    ---
     57  ،          ---     ---    ---    ---
     58  این        ---     ---    ---    ---
     59  کار        ---     ---    ---    ---
     60  را         ---     ---    ---    ---
     61  خواهم_کرد  ---     ---    ---    ---
     62  ،          ---     ---    ---    ---
     63  و          ---     ---    ---    ---
     64  باید       ---     ---    ---    ---
     65  انجامش     ---     ---    ---    ---
     66  دهم        ---     ---    ---    ---
     67  !          ---     ---    ---    ---
     68  »          ---     ---    ---    ---


  index  world    root    POS    pos    future
-------  -------  ------  -----  -----  --------
      0  مشکلی    ---     ---    ---    ---
      1  که       ---     ---    ---    ---
      2  در       ---     ---    ---    ---
      3  زندگی    ---     ---    ---    ---
      4  دارید    ---     ---    ---    ---
      5  را       ---     ---    ---    ---
      6  در       ---     ---    ---    ---
      7  ذهنتان   ---     ---    ---    ---
      8  بیاورید  ---     ---    ---    ---
      9  و        ---     ---    ---    ---
     10  این      ---     ---    ---    ---
     11  جملات    ---     ---    ---    ---
     12  را       ---     ---    ---    ---
     13  (        ---     ---    ---    ---
     14  من       ---     ---    ---    ---
     15  می‌توانم  ---     ---    ---    ---
     16  )        ---     ---    ---    ---
     17  توأم     ---     ---    ---    ---
     18  با       ---     ---    ---    ---
     19  احساس    ---     ---    ---    ---
     20  ،        ---     ---    ---    ---
     21  تکرار    ---     ---    ---    ---
     22  کنید     ---     ---    ---    ---
     23  .        ---     ---    ---    ---


  index  world       root    POS    pos    future
-------  ----------  ------  -----  -----  --------
      0  به          ---     ---    ---    ---
      1  خودتان      ---     ---    ---    ---
      2  بگویید      ---     ---    ---    ---
      3  که          ---     ---    ---    ---
      4  باید        ---     ---    ---    ---
      5  آن          ---     ---    ---    ---
      6  را          ---     ---    ---    ---
      7  حل          ---     ---    ---    ---
      8  کنید        ---     ---    ---    ---
      9  ؛           ---     ---    ---    ---
     10  به          ---     ---    ---    ---
     11  خاطر        ---     ---    ---    ---
     12  فرزندانتان  ---     ---    ---    ---
     13  این         ---     ---    ---    ---
     14  کار         ---     ---    ---    ---
     15  را          ---     ---    ---    ---
     16  بکنید       ---     ---    ---    ---
     17  ؛           ---     ---    ---    ---
     18  به          ---     ---    ---    ---
     19  خاطر        ---     ---    ---    ---
     20  خانواده‌تان  ---     ---    ---    ---
     21  !           ---     ---    ---    ---


  index  world     root    POS    pos    future
-------  --------  ------  -----  -----  --------
      0  شما       ---     ---    ---    ---
      1  هنوز      ---     ---    ---    ---
      2  فرصت      ---     ---    ---    ---
      3  زندگی     ---     ---    ---    ---
      4  دارید     ---     ---    ---    ---
      5  ؛         ---     ---    ---    ---
      6  زندگی     ---     ---    ---    ---
      7  شما       ---     ---    ---    ---
      8  هنوز      ---     ---    ---    ---
      9  تمام      ---     ---    ---    ---
     10  نشده_است  ---     ---    ---    ---
     11  .         ---     ---    ---    ---


  index  world      root    POS    pos    future
-------  ---------  ------  -----  -----  --------
      0  بسیاری     ---     ---    ---    ---
      1  از         ---     ---    ---    ---
      2  شما        ---     ---    ---    ---
      3  می‌گویید    ---     ---    ---    ---
      4  که         ---     ---    ---    ---
      5  از         ---     ---    ---    ---
      6  شکست       ---     ---    ---    ---
      7  خوردن      ---     ---    ---    ---
      8  خسته       ---     ---    ---    ---
      9  شده‌اید     ---     ---    ---    ---
     10  ؛          ---     ---    ---    ---
     11  می‌گویید    ---     ---    ---    ---
     12  که         ---     ---    ---    ---
     13  دیگر       ---     ---    ---    ---
     14  نمی‌خواهید  ---     ---    ---    ---
     15  رابطه      ---     ---    ---    ---
     16  دیگری      ---     ---    ---    ---
     17  در         ---     ---    ---    ---
     18  زندگی‌تان   ---     ---    ---    ---
     19  خراب       ---     ---    ---    ---
     20  شود        ---     ---    ---    ---
     21  ؛          ---     ---    ---    ---
     22  دیگر       ---     ---    ---    ---
     23  از         ---     ---    ---    ---
     24  مأیوس      ---     ---    ---    ---
     25  بودن       ---     ---    ---    ---
     26  خسته       ---     ---    ---    ---
     27  شده‌اید…    ---     ---    ---    ---
     28  ما         ---     ---    ---    ---
     29  درک        ---     ---    ---    ---
     30  می‌کنیم     ---     ---    ---    ---
     31  که         ---     ---    ---    ---
     32  از         ---     ---    ---    ---
     33  بسیاری     ---     ---    ---    ---
     34  از         ---     ---    ---    ---
     35  مشکلات     ---     ---    ---    ---
     36  خسته       ---     ---    ---    ---
     37  شده‌اید     ---     ---    ---    ---
     38  و          ---     ---    ---    ---
     39  می‌ترسید    ---     ---    ---    ---
     40  .          ---     ---    ---    ---


  index  world    root    POS    pos    future
-------  -------  ------  -----  -----  --------
      0  من       ---     ---    ---    ---
      1  می‌توانم  ---     ---    ---    ---
      2  !        ---     ---    ---    ---


  index  world     root    POS    pos    future
-------  --------  ------  -----  -----  --------
      0  خواهش     ---     ---    ---    ---
      1  ما        ---     ---    ---    ---
      2  از        ---     ---    ---    ---
      3  شما       ---     ---    ---    ---
      4  این       ---     ---    ---    ---
      5  است       ---     ---    ---    ---
      6  که        ---     ---    ---    ---
      7  پیشاپیش   ---     ---    ---    ---
      8  نگران     ---     ---    ---    ---
      9  اتفاقاتی  ---     ---    ---    ---
     10  که        ---     ---    ---    ---
     11  امسال     ---     ---    ---    ---
     12  قرار      ---     ---    ---    ---
     13  است       ---     ---    ---    ---
     14  رخ        ---     ---    ---    ---
     15  بدهد      ---     ---    ---    ---
     16  ،         ---     ---    ---    ---
     17  نباشید    ---     ---    ---    ---
     18  !         ---     ---    ---    ---


  index  world     root    POS    pos    future
-------  --------  ------  -----  -----  --------
      0  حتی       ---     ---    ---    ---
      1  لازم      ---     ---    ---    ---
      2  نیست      ---     ---    ---    ---
      3  نگران     ---     ---    ---    ---
      4  اتفاقاتی  ---     ---    ---    ---
      5  که        ---     ---    ---    ---
      6  این       ---     ---    ---    ---
      7  ماه       ---     ---    ---    ---
      8  قرار      ---     ---    ---    ---
      9  است       ---     ---    ---    ---
     10  رخ        ---     ---    ---    ---
     11  بدهد      ---     ---    ---    ---
     12  ،         ---     ---    ---    ---
     13  باشید     ---     ---    ---    ---
     14  !         ---     ---    ---    ---


  index  world     root    POS    pos    future
-------  --------  ------  -----  -----  --------
      0  تنها      ---     ---    ---    ---
      1  کاری      ---     ---    ---    ---
      2  که        ---     ---    ---    ---
      3  شما       ---     ---    ---    ---
      4  باید      ---     ---    ---    ---
      5  انجام     ---     ---    ---    ---
      6  دهید      ---     ---    ---    ---
      7  ،         ---     ---    ---    ---
      8  این       ---     ---    ---    ---
      9  است       ---     ---    ---    ---
     10  که        ---     ---    ---    ---
     11  فقط       ---     ---    ---    ---
     12  به        ---     ---    ---    ---
     13  امروزتان  ---     ---    ---    ---
     14  فکر       ---     ---    ---    ---
     15  کنید      ---     ---    ---    ---
     16  .         ---     ---    ---    ---


  index  world     root    POS    pos    future
-------  --------  ------  -----  -----  --------
      0  آیا       ---     ---    ---    ---
      1  واقعا     ---     ---    ---    ---
      2  می‌توانید  ---     ---    ---    ---
      3  امروز     ---     ---    ---    ---
      4  را        ---     ---    ---    ---
      5  درست      ---     ---    ---    ---
      6  سپری      ---     ---    ---    ---
      7  کنید      ---     ---    ---    ---
      8  ؟         ---     ---    ---    ---


  index  world      root    POS    pos    future
-------  ---------  ------  -----  -----  --------
      0  از         ---     ---    ---    ---
      1  شما        ---     ---    ---    ---
      2  می‌خواهیم   ---     ---    ---    ---
      3  که         ---     ---    ---    ---
      4  با         ---     ---    ---    ---
      5  صدای       ---     ---    ---    ---
      6  بلند       ---     ---    ---    ---
      7  ،          ---     ---    ---    ---
      8  این        ---     ---    ---    ---
      9  را         ---     ---    ---    ---
     10  با         ---     ---    ---    ---
     11  خود        ---     ---    ---    ---
     12  تکرار      ---     ---    ---    ---
     13  کنید       ---     ---    ---    ---
     14  :          ---     ---    ---    ---
     15  «          ---     ---    ---    ---
     16  می‌توانم    ---     ---    ---    ---
     17  ،          ---     ---    ---    ---
     18  این        ---     ---    ---    ---
     19  کار        ---     ---    ---    ---
     20  را         ---     ---    ---    ---
     21  خواهم_کرد  ---     ---    ---    ---
     22  ،          ---     ---    ---    ---
     23  و          ---     ---    ---    ---
     24  باید       ---     ---    ---    ---
     25  انجامش     ---     ---    ---    ---
     26  دهم        ---     ---    ---    ---
     27  !          ---     ---    ---    ---
     28  »          ---     ---    ---    ---
     29  این        ---     ---    ---    ---
     30  سه         ---     ---    ---    ---
     31  جمله       ---     ---    ---    ---
     32  را         ---     ---    ---    ---
     33  با         ---     ---    ---    ---
     34  تمام       ---     ---    ---    ---
     35  وجودتان    ---     ---    ---    ---
     36  حس         ---     ---    ---    ---
     37  کنید       ---     ---    ---    ---
     38  و          ---     ---    ---    ---
     39  با         ---     ---    ---    ---
     40  صدای       ---     ---    ---    ---
     41  بلند       ---     ---    ---    ---
     42  تکرار      ---     ---    ---    ---
     43  کنید       ---     ---    ---    ---
     44  .          ---     ---    ---    ---


  index  world      root    POS    pos    future
-------  ---------  ------  -----  -----  --------
      0  اگر        ---     ---    ---    ---
      1  هر         ---     ---    ---    ---
      2  مشکلی      ---     ---    ---    ---
      3  که         ---     ---    ---    ---
      4  دارید      ---     ---    ---    ---
      5  ،          ---     ---    ---    ---
      6  و          ---     ---    ---    ---
      7  هر         ---     ---    ---    ---
      8  مسئله‌ای    ---     ---    ---    ---
      9  شما        ---     ---    ---    ---
     10  را         ---     ---    ---    ---
     11  مأیوس      ---     ---    ---    ---
     12  کرده       ---     ---    ---    ---
     13  و          ---     ---    ---    ---
     14  باعث       ---     ---    ---    ---
     15  شده        ---     ---    ---    ---
     16  که         ---     ---    ---    ---
     17  با         ---     ---    ---    ---
     18  خود        ---     ---    ---    ---
     19  بگویید     ---     ---    ---    ---
     20  :          ---     ---    ---    ---
     21  «          ---     ---    ---    ---
     22  من         ---     ---    ---    ---
     23  دیگر       ---     ---    ---    ---
     24  نمی‌توانم   ---     ---    ---    ---
     25  با         ---     ---    ---    ---
     26  این        ---     ---    ---    ---
     27  شرایط      ---     ---    ---    ---
     28  کنار       ---     ---    ---    ---
     29  بیایم      ---     ---    ---    ---
     30  »          ---     ---    ---    ---
     31  ،          ---     ---    ---    ---
     32  با         ---     ---    ---    ---
     33  تمام       ---     ---    ---    ---
     34  وجود       ---     ---    ---    ---
     35  این        ---     ---    ---    ---
     36  سه         ---     ---    ---    ---
     37  جمله       ---     ---    ---    ---
     38  را         ---     ---    ---    ---
     39  با         ---     ---    ---    ---
     40  خود        ---     ---    ---    ---
     41  تکرار      ---     ---    ---    ---
     42  کنید       ---     ---    ---    ---
     43  :          ---     ---    ---    ---
     44  «          ---     ---    ---    ---
     45  من         ---     ---    ---    ---
     46  می‌توانم    ---     ---    ---    ---
     47  از         ---     ---    ---    ---
     48  پس         ---     ---    ---    ---
     49  این        ---     ---    ---    ---
     50  مشکل       ---     ---    ---    ---
     51  بر         ---     ---    ---    ---
     52  بیایم      ---     ---    ---    ---
     53  ،          ---     ---    ---    ---
     54  این        ---     ---    ---    ---
     55  کار        ---     ---    ---    ---
     56  را         ---     ---    ---    ---
     57  خواهم_کرد  ---     ---    ---    ---
     58  ،          ---     ---    ---    ---
     59  و          ---     ---    ---    ---
     60  باید       ---     ---    ---    ---
     61  انجامش     ---     ---    ---    ---
     62  دهم        ---     ---    ---    ---
     63  !          ---     ---    ---    ---
     64  »          ---     ---    ---    ---


  index  world    root    POS    pos    future
-------  -------  ------  -----  -----  --------
      0  مشکلی    ---     ---    ---    ---
      1  که       ---     ---    ---    ---
      2  در       ---     ---    ---    ---
      3  زندگی    ---     ---    ---    ---
      4  دارید    ---     ---    ---    ---
      5  را       ---     ---    ---    ---
      6  در       ---     ---    ---    ---
      7  ذهنتان   ---     ---    ---    ---
      8  بیاورید  ---     ---    ---    ---
      9  و        ---     ---    ---    ---
     10  این      ---     ---    ---    ---
     11  جملات    ---     ---    ---    ---
     12  را       ---     ---    ---    ---
     13  (        ---     ---    ---    ---
     14  من       ---     ---    ---    ---
     15  می‌توانم  ---     ---    ---    ---
     16  )        ---     ---    ---    ---
     17  توأم     ---     ---    ---    ---
     18  با       ---     ---    ---    ---
     19  احساس    ---     ---    ---    ---
     20  ،        ---     ---    ---    ---
     21  تکرار    ---     ---    ---    ---
     22  کنید     ---     ---    ---    ---
     23  .        ---     ---    ---    ---


  index  world       root    POS    pos    future
-------  ----------  ------  -----  -----  --------
      0  به          ---     ---    ---    ---
      1  خودتان      ---     ---    ---    ---
      2  بگویید      ---     ---    ---    ---
      3  که          ---     ---    ---    ---
      4  باید        ---     ---    ---    ---
      5  آن          ---     ---    ---    ---
      6  را          ---     ---    ---    ---
      7  حل          ---     ---    ---    ---
      8  کنید        ---     ---    ---    ---
      9  ؛           ---     ---    ---    ---
     10  به          ---     ---    ---    ---
     11  خاطر        ---     ---    ---    ---
     12  فرزندانتان  ---     ---    ---    ---
     13  این         ---     ---    ---    ---
     14  کار         ---     ---    ---    ---
     15  را          ---     ---    ---    ---
     16  بکنید       ---     ---    ---    ---
     17  ؛           ---     ---    ---    ---
     18  به          ---     ---    ---    ---
     19  خاطر        ---     ---    ---    ---
     20  خانواده‌تان  ---     ---    ---    ---
     21  !           ---     ---    ---    ---


  index  world     root    POS    pos    future
-------  --------  ------  -----  -----  --------
      0  شما       ---     ---    ---    ---
      1  هنوز      ---     ---    ---    ---
      2  فرصت      ---     ---    ---    ---
      3  زندگی     ---     ---    ---    ---
      4  دارید     ---     ---    ---    ---
      5  ؛         ---     ---    ---    ---
      6  زندگی     ---     ---    ---    ---
      7  شما       ---     ---    ---    ---
      8  هنوز      ---     ---    ---    ---
      9  تمام      ---     ---    ---    ---
     10  نشده_است  ---     ---    ---    ---
     11  .         ---     ---    ---    ---


  index  world      root    POS    pos    future
-------  ---------  ------  -----  -----  --------
      0  بسیاری     ---     ---    ---    ---
      1  از         ---     ---    ---    ---
      2  شما        ---     ---    ---    ---
      3  می‌گویید    ---     ---    ---    ---
      4  که         ---     ---    ---    ---
      5  از         ---     ---    ---    ---
      6  شکست       ---     ---    ---    ---
      7  خوردن      ---     ---    ---    ---
      8  خسته       ---     ---    ---    ---
      9  شده‌اید     ---     ---    ---    ---
     10  ؛          ---     ---    ---    ---
     11  می‌گویید    ---     ---    ---    ---
     12  که         ---     ---    ---    ---
     13  دیگر       ---     ---    ---    ---
     14  نمی‌خواهید  ---     ---    ---    ---
     15  رابطه      ---     ---    ---    ---
     16  دیگری      ---     ---    ---    ---
     17  در         ---     ---    ---    ---
     18  زندگی‌تان   ---     ---    ---    ---
     19  خراب       ---     ---    ---    ---
     20  شود        ---     ---    ---    ---
     21  ؛          ---     ---    ---    ---
     22  دیگر       ---     ---    ---    ---
     23  از         ---     ---    ---    ---
     24  مأیوس      ---     ---    ---    ---
     25  بودن       ---     ---    ---    ---
     26  خسته       ---     ---    ---    ---
     27  شده‌اید…    ---     ---    ---    ---
     28  ما         ---     ---    ---    ---
     29  درک        ---     ---    ---    ---
     30  می‌کنیم     ---     ---    ---    ---
     31  که         ---     ---    ---    ---
     32  از         ---     ---    ---    ---
     33  بسیاری     ---     ---    ---    ---
     34  از         ---     ---    ---    ---
     35  مشکلات     ---     ---    ---    ---
     36  خسته       ---     ---    ---    ---
     37  شده‌اید     ---     ---    ---    ---
     38  و          ---     ---    ---    ---
     39  می‌ترسید    ---     ---    ---    ---
     40  .          ---     ---    ---    ---


  index  world    root    POS    pos    future
-------  -------  ------  -----  -----  --------
      0  من       ---     ---    ---    ---
      1  می‌توانم  ---     ---    ---    ---
      2  !        ---     ---    ---    ---


  index  world     root    POS    pos    future
-------  --------  ------  -----  -----  --------
      0  خواهش     ---     ---    ---    ---
      1  ما        ---     ---    ---    ---
      2  از        ---     ---    ---    ---
      3  شما       ---     ---    ---    ---
      4  این       ---     ---    ---    ---
      5  است       ---     ---    ---    ---
      6  که        ---     ---    ---    ---
      7  پیشاپیش   ---     ---    ---    ---
      8  نگران     ---     ---    ---    ---
      9  اتفاقاتی  ---     ---    ---    ---
     10  که        ---     ---    ---    ---
     11  امسال     ---     ---    ---    ---
     12  قرار      ---     ---    ---    ---
     13  است       ---     ---    ---    ---
     14  رخ        ---     ---    ---    ---
     15  بدهد      ---     ---    ---    ---
     16  ،         ---     ---    ---    ---
     17  نباشید    ---     ---    ---    ---
     18  !         ---     ---    ---    ---


  index  world     root    POS    pos    future
-------  --------  ------  -----  -----  --------
      0  حتی       ---     ---    ---    ---
      1  لازم      ---     ---    ---    ---
      2  نیست      ---     ---    ---    ---
      3  نگران     ---     ---    ---    ---
      4  اتفاقاتی  ---     ---    ---    ---
      5  که        ---     ---    ---    ---
      6  این       ---     ---    ---    ---
      7  ماه       ---     ---    ---    ---
      8  قرار      ---     ---    ---    ---
      9  است       ---     ---    ---    ---
     10  رخ        ---     ---    ---    ---
     11  بدهد      ---     ---    ---    ---
     12  ،         ---     ---    ---    ---
     13  باشید     ---     ---    ---    ---
     14  !         ---     ---    ---    ---


  index  world     root    POS    pos    future
-------  --------  ------  -----  -----  --------
      0  تنها      ---     ---    ---    ---
      1  کاری      ---     ---    ---    ---
      2  که        ---     ---    ---    ---
      3  شما       ---     ---    ---    ---
      4  باید      ---     ---    ---    ---
      5  انجام     ---     ---    ---    ---
      6  دهید      ---     ---    ---    ---
      7  ،         ---     ---    ---    ---
      8  این       ---     ---    ---    ---
      9  است       ---     ---    ---    ---
     10  که        ---     ---    ---    ---
     11  فقط       ---     ---    ---    ---
     12  به        ---     ---    ---    ---
     13  امروزتان  ---     ---    ---    ---
     14  فکر       ---     ---    ---    ---
     15  کنید      ---     ---    ---    ---
     16  .         ---     ---    ---    ---


  index  world     root    POS    pos    future
-------  --------  ------  -----  -----  --------
      0  آیا       ---     ---    ---    ---
      1  واقعا     ---     ---    ---    ---
      2  می‌توانید  ---     ---    ---    ---
      3  امروز     ---     ---    ---    ---
      4  را        ---     ---    ---    ---
      5  درست      ---     ---    ---    ---
      6  سپری      ---     ---    ---    ---
      7  کنید      ---     ---    ---    ---
      8  ؟         ---     ---    ---    ---


  index  world      root    POS    pos    future
-------  ---------  ------  -----  -----  --------
      0  از         ---     ---    ---    ---
      1  شما        ---     ---    ---    ---
      2  می‌خواهیم   ---     ---    ---    ---
      3  که         ---     ---    ---    ---
      4  با         ---     ---    ---    ---
      5  صدای       ---     ---    ---    ---
      6  بلند       ---     ---    ---    ---
      7  ،          ---     ---    ---    ---
      8  این        ---     ---    ---    ---
      9  را         ---     ---    ---    ---
     10  با         ---     ---    ---    ---
     11  خود        ---     ---    ---    ---
     12  تکرار      ---     ---    ---    ---
     13  کنید       ---     ---    ---    ---
     14  :          ---     ---    ---    ---
     15  «          ---     ---    ---    ---
     16  می‌توانم    ---     ---    ---    ---
     17  ،          ---     ---    ---    ---
     18  این        ---     ---    ---    ---
     19  کار        ---     ---    ---    ---
     20  را         ---     ---    ---    ---
     21  خواهم_کرد  ---     ---    ---    ---
     22  ،          ---     ---    ---    ---
     23  و          ---     ---    ---    ---
     24  باید       ---     ---    ---    ---
     25  انجامش     ---     ---    ---    ---
     26  دهم        ---     ---    ---    ---
     27  !          ---     ---    ---    ---
     28  »          ---     ---    ---    ---
     29  این        ---     ---    ---    ---
     30  سه         ---     ---    ---    ---
     31  جمله       ---     ---    ---    ---
     32  را         ---     ---    ---    ---
     33  با         ---     ---    ---    ---
     34  تمام       ---     ---    ---    ---
     35  وجودتان    ---     ---    ---    ---
     36  حس         ---     ---    ---    ---
     37  کنید       ---     ---    ---    ---
     38  و          ---     ---    ---    ---
     39  با         ---     ---    ---    ---
     40  صدای       ---     ---    ---    ---
     41  بلند       ---     ---    ---    ---
     42  تکرار      ---     ---    ---    ---
     43  کنید       ---     ---    ---    ---
     44  .          ---     ---    ---    ---


  index  world      root    POS    pos    future
-------  ---------  ------  -----  -----  --------
      0  اگر        ---     ---    ---    ---
      1  هر         ---     ---    ---    ---
      2  مشکلی      ---     ---    ---    ---
      3  که         ---     ---    ---    ---
      4  دارید      ---     ---    ---    ---
      5  ،          ---     ---    ---    ---
      6  و          ---     ---    ---    ---
      7  هر         ---     ---    ---    ---
      8  «          ---     ---    ---    ---
      9  مسئله‌ای    ---     ---    ---    ---
     10  »          ---     ---    ---    ---
     11  شما        ---     ---    ---    ---
     12  را         ---     ---    ---    ---
     13  مأیوس      ---     ---    ---    ---
     14  کرده       ---     ---    ---    ---
     15  و          ---     ---    ---    ---
     16  باعث       ---     ---    ---    ---
     17  شده        ---     ---    ---    ---
     18  که         ---     ---    ---    ---
     19  با         ---     ---    ---    ---
     20  (          ---     ---    ---    ---
     21  خود        ---     ---    ---    ---
     22  بگویید     ---     ---    ---    ---
     23  )          ---     ---    ---    ---
     24  :          ---     ---    ---    ---
     25  «          ---     ---    ---    ---
     26  من         ---     ---    ---    ---
     27  دیگر       ---     ---    ---    ---
     28  نمی‌توانم   ---     ---    ---    ---
     29  با         ---     ---    ---    ---
     30  این        ---     ---    ---    ---
     31  شرایط      ---     ---    ---    ---
     32  کنار       ---     ---    ---    ---
     33  بیایم      ---     ---    ---    ---
     34  »          ---     ---    ---    ---
     35  ،          ---     ---    ---    ---
     36  با         ---     ---    ---    ---
     37  تمام       ---     ---    ---    ---
     38  وجود       ---     ---    ---    ---
     39  این        ---     ---    ---    ---
     40  سه         ---     ---    ---    ---
     41  جمله       ---     ---    ---    ---
     42  را         ---     ---    ---    ---
     43  با         ---     ---    ---    ---
     44  خود        ---     ---    ---    ---
     45  تکرار      ---     ---    ---    ---
     46  کنید       ---     ---    ---    ---
     47  :          ---     ---    ---    ---
     48  «          ---     ---    ---    ---
     49  من         ---     ---    ---    ---
     50  می‌توانم    ---     ---    ---    ---
     51  از         ---     ---    ---    ---
     52  پس         ---     ---    ---    ---
     53  این        ---     ---    ---    ---
     54  مشکل       ---     ---    ---    ---
     55  بر         ---     ---    ---    ---
     56  بیایم      ---     ---    ---    ---
     57  ،          ---     ---    ---    ---
     58  این        ---     ---    ---    ---
     59  کار        ---     ---    ---    ---
     60  را         ---     ---    ---    ---
     61  خواهم_کرد  ---     ---    ---    ---
     62  ،          ---     ---    ---    ---
     63  و          ---     ---    ---    ---
     64  باید       ---     ---    ---    ---
     65  انجامش     ---     ---    ---    ---
     66  دهم        ---     ---    ---    ---
     67  !          ---     ---    ---    ---
     68  »          ---     ---    ---    ---


  index  world    root    POS    pos    future
-------  -------  ------  -----  -----  --------
      0  مشکلی    ---     ---    ---    ---
      1  که       ---     ---    ---    ---
      2  در       ---     ---    ---    ---
      3  زندگی    ---     ---    ---    ---
      4  دارید    ---     ---    ---    ---
      5  را       ---     ---    ---    ---
      6  در       ---     ---    ---    ---
      7  ذهنتان   ---     ---    ---    ---
      8  بیاورید  ---     ---    ---    ---
      9  و        ---     ---    ---    ---
     10  این      ---     ---    ---    ---
     11  جملات    ---     ---    ---    ---
     12  را       ---     ---    ---    ---
     13  (        ---     ---    ---    ---
     14  من       ---     ---    ---    ---
     15  می‌توانم  ---     ---    ---    ---
     16  )        ---     ---    ---    ---
     17  توأم     ---     ---    ---    ---
     18  با       ---     ---    ---    ---
     19  احساس    ---     ---    ---    ---
     20  ،        ---     ---    ---    ---
     21  تکرار    ---     ---    ---    ---
     22  کنید     ---     ---    ---    ---
     23  .        ---     ---    ---    ---


  index  world       root    POS    pos    future
-------  ----------  ------  -----  -----  --------
      0  به          ---     ---    ---    ---
      1  خودتان      ---     ---    ---    ---
      2  بگویید      ---     ---    ---    ---
      3  که          ---     ---    ---    ---
      4  باید        ---     ---    ---    ---
      5  آن          ---     ---    ---    ---
      6  را          ---     ---    ---    ---
      7  حل          ---     ---    ---    ---
      8  کنید        ---     ---    ---    ---
      9  ؛           ---     ---    ---    ---
     10  به          ---     ---    ---    ---
     11  خاطر        ---     ---    ---    ---
     12  فرزندانتان  ---     ---    ---    ---
     13  این         ---     ---    ---    ---
     14  کار         ---     ---    ---    ---
     15  را          ---     ---    ---    ---
     16  بکنید       ---     ---    ---    ---
     17  ؛           ---     ---    ---    ---
     18  به          ---     ---    ---    ---
     19  خاطر        ---     ---    ---    ---
     20  خانواده‌تان  ---     ---    ---    ---
     21  !           ---     ---    ---    ---


  index  world     root    POS    pos    future
-------  --------  ------  -----  -----  --------
      0  شما       ---     ---    ---    ---
      1  هنوز      ---     ---    ---    ---
      2  فرصت      ---     ---    ---    ---
      3  زندگی     ---     ---    ---    ---
      4  دارید     ---     ---    ---    ---
      5  ؛         ---     ---    ---    ---
      6  زندگی     ---     ---    ---    ---
      7  شما       ---     ---    ---    ---
      8  هنوز      ---     ---    ---    ---
      9  تمام      ---     ---    ---    ---
     10  نشده_است  ---     ---    ---    ---
     11  .         ---     ---    ---    ---


