index     world     root      POS       pos       future     
0         ﻿sh·      ---       dsd       ---       ---                  
1         χejlɪ     ---       ffgfg     ---       wwwwwww = --- |                          
2         tʊl       ---       ffgfg     ---       ddddd = --- |                            
3         ʔækeʃe    ---       dsd       ---       ---                  

 
index     world     root      POS       pos       future     
0         h·        ---       ---       ---       ---                  
1         næ        ---       ---       ---       ---                  
2         ke        ---       ---       ---       ---                  
3         pændʒ     ---       ---       ---       ---                  
4         deqe      ---       ---       ---       ---                  
5         ʔæbe      ---       ---       ---       ---                  

 
index     world     root      POS       pos       future     
0         ft·       ---       ---       ---       ---                  
1         χo        ---       ---       ---       ---                  
2         boro      ---       ---       ---       ---                  
3         pændʒ     ---       ---       ---       ---                  
4         deqeʔɪX   ---       ---       ---       ---                  
5         χo        ---       ---       ---       ---                  
6         boro      ---       ---       ---       ---                  
7         pændʒ     ---       ---       ---       ---                  
8         deqeʔɪ    ---       ---       ---       ---                  
9         boro      ---       ---       ---       ---                  

 
index     world     root      POS       pos       future     
0         h·        ---       ---       ---       ---                  
1         boro      ---       ---       ---       ---                  
2         boro      ---       ---       ---       ---                  
3         voj       ---       ---       ---       ---                  
4         mo        ---       ---       ---       ---                  
5         hæm       ---       ---       ---       ---                  
6         ʔendɑjɪjom---       ---       ---       ---                  
7         mo        ---       ---       ---       ---                  
8         ʔæge      ---       ---       ---       ---                  
9         hæmʊm     ---       ---       ---       ---                  
10        netʃom    ---       ---       ---       ---                  
11        ʔæsæn     ---       ---       ---       ---                  
12        ʔæʔsɑbom  ---       ---       ---       ---                  
13        nɑʃe      ---       ---       ---       ---                  
14        ʔotʃom    ---       ---       ---       ---                  
15        dʒɑjɪX    ---       ---       ---       ---                  
16        tʃɑʃt     ---       ---       ---       ---                  
17        be        ---       ---       ---       ---                  
18        dolot     ---       ---       ---       ---                  
19        neresɪd   ---       ---       ---       ---                  
20        degæ؟     ---       ---       ---       ---                  

 
index     world     root      POS       pos       future     
0         ft·       ---       ---       ---       ---                  
1         ʔægom     ---       ---       ---       ---                  
2         mægæ      ---       ---       ---       ---                  
3         to        ---       ---       ---       ---                  
4         tʃɑʃt     ---       ---       ---       ---                  
5         ʔotneχærde---       ---       ---       ---                  
6         ʔɑqɑ؟     ---       ---       ---       ---                  

 
index     world     root      POS       pos       future     
0         h·        ---       ---       ---       ---                  
1         tʃɑʃt     ---       ---       ---       ---                  
2         be        ---       ---       ---       ---                  
3         delot     ---       ---       ---       ---                  
4         næresɪ    ---       ---       ---       ---                  

 
index     world     root      POS       pos       future     
0         sh·       ---       ---       ---       ---                  
1         tʃerɑ     ---       ---       ---       ---                  
2         bɪʃtær    ---       ---       ---       ---                  
3         ʔomneχæ   ---       ---       ---       ---                  

 
index     world     root      POS       pos       future     
0         h·        ---       ---       ---       ---                  
1         bɑjæd     ---       ---       ---       ---                  
2         gʊʃt      ---       ---       ---       ---                  
3         bæχæ      ---       ---       ---       ---                  
4         gonɑʃæ    ---       ---       ---       ---                  
5         hɪtʃɪʃ    ---       ---       ---       ---                  
6         neχæ      ---       ---       ---       ---                  

 
index     world     root      POS       pos       future     
0         ft·       ---       ---       ---       ---                  
1         bætʃɪjɑje ---       ---       ---       ---                  
2         mo        ---       ---       ---       ---                  
3         ʔendojɪ   ---       ---       ---       ---                  
4         hed       ---       ---       ---       ---                  
5         vælɪ      ---       ---       ---       ---                  
6         ʃoʔæj     ---       ---       ---       ---                  
7         je        ---       ---       ---       ---                  
8         tʃɪ       ---       ---       ---       ---                  
9         boχored   ---       ---       ---       ---                  

 
index     world     root      POS       pos       future     
0         h·        ---       ---       ---       ---                  
1         degæ      ---       ---       ---       ---                  
2         ʔæχoredX  ---       ---       ---       ---                  
3         hæmæmʊ    ---       ---       ---       ---                  
4         ʔendojɪ   ---       ---       ---       ---                  
5         hem       ---       ---       ---       ---                  
6         dɑdɑ      ---       ---       ---       ---                  

 
index     world     root      POS       pos       future     
0         ft·       ---       ---       ---       ---                  
1         mɑmɑnɪ    ---       ---       ---       ---                  
2         to        ---       ---       ---       ---                  
3         χʊneje    ---       ---       ---       ---                  
4         felɑnɪ    ---       ---       ---       ---                  
5         ʔælʔɑn    ---       ---       ---       ---                  
6         ʃɑm       ---       ---       ---       ---                  
7         ʔotχærde  ---       ---       ---       ---                  

 
index     world     root      POS       pos       future     
0         h·        ---       ---       ---       ---                  
1         dɑdɑ      ---       ---       ---       ---                  

 
index     world     root      POS       pos       future     
0         ft·       ---       ---       ---       ---                  
1         næ        ---       ---       ---       ---                  
2         χejlɪ     ---       ---       ---       ---                  
3         ʔomneχærde---       ---       ---       ---                  

 
index     world     root      POS       pos       future     
0         h·        ---       ---       ---       ---                  
1         mo        ---       ---       ---       ---                  
2         nesfe     ---       ---       ---       ---                  
3         ʃowɪjɑ    ---       ---       ---       ---                  

 
index     world     root      POS       pos       future     
0         ft·       ---       ---       ---       ---                  
1         to        ---       ---       ---       ---                  
2         hæm       ---       ---       ---       ---                  
3         ʔendɑ     ---       ---       ---       ---                  
4         bodeʃ     ---       ---       ---       ---                  

 
index     world     root      POS       pos       future     
0         h·        ---       ---       ---       ---                  
1         mo        ---       ---       ---       ---                  
2         nesfe     ---       ---       ---       ---                  
3         ʃowjɪjɑ   ---       ---       ---       ---                  
4         dɑdɑ      ---       ---       ---       ---                  
5         mo        ---       ---       ---       ---                  
6         nesfe     ---       ---       ---       ---                  
7         ʃoʔɪjɑ    ---       ---       ---       ---                  
8         hævæse    ---       ---       ---       ---                  
9         ʔændomɪ   ---       ---       ---       ---                  
10        ʔækenom   ---       ---       ---       ---                  
11        bɑʔd      ---       ---       ---       ---                  
12        hɑlɑ      ---       ---       ---       ---                  
13        ʃʊmæm     ---       ---       ---       ---                  
14        ʔomχærde  ---       ---       ---       ---                  
15        jeho      ---       ---       ---       ---                  
16        ʔæbeʃ     ---       ---       ---       ---                  
17        sɑʔæte    ---       ---       ---       ---                  
18        pændʒ     ---       ---       ---       ---                  
19        bolænd    ---       ---       ---       ---                  
20        ʔæbom     ---       ---       ---       ---                  
21        dorost    ---       ---       ---       ---                  
22        ʔækenom   ---       ---       ---       ---                  
23        ʔæχorom   ---       ---       ---       ---                  
24        jæʔnɪ     ---       ---       ---       ---                  
25        tɑ        ---       ---       ---       ---                  
26        neχorom   ---       ---       ---       ---                  
27        ʔomnɑʃɑ   ---       ---       ---       ---                  
28        ʔoχætom   ---       ---       ---       ---                  
29        ʔægom     ---       ---       ---       ---                  
30        je        ---       ---       ---       ---                  
31        ʔændomɪ   ---       ---       ---       ---                  
32        neχorom   ---       ---       ---       ---                  
33        jæʔnɪ؟    ---       ---       ---       ---                  

 
index     world     root      POS       pos       future     
0         sh·       ---       ---       ---       ---                  
1         vɑ        ---       ---       ---       ---                  
2         ke        ---       ---       ---       ---                  
3         ʔɑdæm     ---       ---       ---       ---                  
4         sɪr       ---       ---       ---       ---                  
5         nɑkod     ---       ---       ---       ---                  
6         bɪʃtæræm  ---       ---       ---       ---                  
7         goʃne     ---       ---       ---       ---                  
8         ʔækod     ---       ---       ---       ---                  
9         tɑ        ---       ---       ---       ---                  
10        bɪstɑ     ---       ---       ---       ---                  
11        deqe      ---       ---       ---       ---                  
12        fæqæt     ---       ---       ---       ---                  
13        sɪreʃ     ---       ---       ---       ---                  

 
index     world     root      POS       pos       future     
0         h·        ---       ---       ---       ---                  
1         vɑj       ---       ---       ---       ---                  
2         nɑgʊ      ---       ---       ---       ---                  
3         ke        ---       ---       ---       ---                  
4         mo        ---       ---       ---       ---                  
5         ʔɑʃeqoʃom ---       ---       ---       ---                  

 
index     world     root      POS       pos       future     
0         sh·       ---       ---       ---       ---                  
1         bæʔde     ---       ---       ---       ---                  
2         bɪst      ---       ---       ---       ---                  
3         deqe      ---       ---       ---       ---                  
4         dobɑre    ---       ---       ---       ---                  
5         goʃnæte   ---       ---       ---       ---                  

 
index     world     root      POS       pos       future     
0         h·        ---       ---       ---       ---                  
1         bæde      ---       ---       ---       ---                  
2         bɪst      ---       ---       ---       ---                  
3         deqe      ---       ---       ---       ---                  
4         mo        ---       ---       ---       ---                  
5         ʔæχætom   ---       ---       ---       ---                  

 
index     world     root      POS       pos       future     
0         sep·      ---       ---       ---       ---                  
1         besmelɑh  ---       ---       ---       ---                  

 
index     world     root      POS       pos       future     
0         h·        ---       ---       ---       ---                  
1         vɑj       ---       ---       ---       ---                  
2         χejlɪ     ---       ---       ---       ---                  
3         χoʃmæzæjX ---       ---       ---       ---                  
4         bæʔd      ---       ---       ---       ---                  
5         dʒɑleb    ---       ---       ---       ---                  
6         ʔɪje      ---       ---       ---       ---                  
7         ke        ---       ---       ---       ---                  
8         mo        ---       ---       ---       ---                  
9         hɪtʃɪʃ    ---       ---       ---       ---                  
10        nɑzenomɑ  ---       ---       ---       ---                  
11        mo        ---       ---       ---       ---                  
12        fæqæt     ---       ---       ---       ---                  
13        χoʃo      ---       ---       ---       ---                  
14        ʔædvɪjæʃ  ---       ---       ---       ---                  

 
index     world     root      POS       pos       future     
0         ft·       ---       ---       ---       ---                  
1         hɑ        ---       ---       ---       ---                  
2         mo        ---       ---       ---       ---                  
3         hæm       ---       ---       ---       ---                  
4         sefɪdoʃ   ---       ---       ---       ---                  
5         bɪʃtær    ---       ---       ---       ---                  
6         dʊstomæ   ---       ---       ---       ---                  

 
index     world     root      POS       pos       future     
0         h·        ---       ---       ---       ---                  
1         hɑ        ---       ---       ---       ---                  
2         mo        ---       ---       ---       ---                  
3         hæm       ---       ---       ---       ---                  
4         hæmɪ      ---       ---       ---       ---                  
5         hænɪf     ---       ---       ---       ---                  
6         vɑlɪ      ---       ---       ---       ---                  
7         robɪjæ    ---       ---       ---       ---                  

 
index     world     root      POS       pos       future     
0         sh·       ---       ---       ---       ---                  
1         mo        ---       ---       ---       ---                  
2         je        ---       ---       ---       ---                  
3         rʊzɑje    ---       ---       ---       ---                  
4         te        ---       ---       ---       ---                  
5         χɑbgɑh    ---       ---       ---       ---                  
6         ʔqbe      ---       ---       ---       ---                  
7         sobhɑne   ---       ---       ---       ---                  
8         nɑhɑr     ---       ---       ---       ---                  
9         ʃɑm       ---       ---       ---       ---                  
10        ʔændomɪ   ---       ---       ---       ---                  
11        ʔæχorom   ---       ---       ---       ---                  

 
index     world     root      POS       pos       future     
0         h·        ---       ---       ---       ---                  
1         mo        ---       ---       ---       ---                  
2         hæm       ---       ---       ---       ---                  
3         hæmɪ      ---       ---       ---       ---                  
4         lengæ     ---       ---       ---       ---                  
5         ke        ---       ---       ---       ---                  
6         ʔodom     ---       ---       ---       ---                  
7         vælɪX     ---       ---       ---       ---                  
8         mæsælæn   ---       ---       ---       ---                  
9         gotɑʃ     ---       ---       ---       ---                  
10        hævæs     ---       ---       ---       ---                  
11        ʔækeneʃ   ---       ---       ---       ---                  
12        jɑ        ---       ---       ---       ---                  
13        mæsælæn   ---       ---       ---       ---                  
14        beχɑjʃ    ---       ---       ---       ---                  
15        boχoreʃ   ---       ---       ---       ---                  
16        ʔæχoreʃ   ---       ---       ---       ---                  
17        jɑdome    ---       ---       ---       ---                  
18        ʔæz       ---       ---       ---       ---                  
19        mædresæ   ---       ---       ---       ---                  
20        ʔɑdɑndem  ---       ---       ---       ---                  
21        dɑvɑzdæho ---       ---       ---       ---                  
22        nɪm       ---       ---       ---       ---                  
23        nɑhɑr     ---       ---       ---       ---                  
24        do        ---       ---       ---       ---                  
25        se        ---       ---       ---       ---                  
26        degæ      ---       ---       ---       ---                  
27        moʔæχæ    ---       ---       ---       ---                  
28        degæ      ---       ---       ---       ---                  
29        tɑ        ---       ---       ---       ---                  
30        nænæmʊ    ---       ---       ---       ---                  
31        bɪjɑ      ---       ---       ---       ---                  
32        mo        ---       ---       ---       ---                  
33        te        ---       ---       ---       ---                  
34        ʔɪ        ---       ---       ---       ---                  
35        fɑsele    ---       ---       ---       ---                  
36        ʔændomɪ   ---       ---       ---       ---                  
37        mæχæ      ---       ---       ---       ---                  

 
index     world     root      POS       pos       future     
0         ft·       ---       ---       ---       ---                  
1         hɑ        ---       ---       ---       ---                  
2         rɑst      ---       ---       ---       ---                  
3         ʔæge      ---       ---       ---       ---                  

 
index     world     root      POS       pos       future     
0         h·        ---       ---       ---       ---                  
1         degæ      ---       ---       ---       ---                  
2         nɑhɑræm   ---       ---       ---       ---                  
3         ke        ---       ---       ---       ---                  
4         ʃædɑ      ---       ---       ---       ---                  
5         nɑhɑræm   ---       ---       ---       ---                  
6         mæχæX     ---       ---       ---       ---                  
7         ʃɪr       ---       ---       ---       ---                  
8         ʔoreχto   ---       ---       ---       ---                  
9         ʃekære    ---       ---       ---       ---                  

 
index     world     root      POS       pos       future     
0         ft·       ---       ---       ---       ---                  
1         ʃɪr       ---       ---       ---       ---                  
2         ʔomnereχt ---       ---       ---       ---                  

 
index     world     root      POS       pos       future     
0         h·        ---       ---       ---       ---                  
1         tʃɪ       ---       ---       ---       ---                  
2         toχmemorɾo---       ---       ---       ---                  
3         ʃekæro    ---       ---       ---       ---                  
4         roɾæn     ---       ---       ---       ---                  
5         ʔo        ---       ---       ---       ---                  
6         ʃɪr       ---       ---       ---       ---                  

 
index     world     root      POS       pos       future     
0         ft·       ---       ---       ---       ---                  
1         ʔo        ---       ---       ---       ---                  
2         ʃɪr       ---       ---       ---       ---                  

 
index     world     root      POS       pos       future     
0         h·        ---       ---       ---       ---                  
1         hɪtʃɪ     ---       ---       ---       ---                  
2         to        ---       ---       ---       ---                  
3         beχæ      ---       ---       ---       ---                  
4         to        ---       ---       ---       ---                  
5         rɑhæt     ---       ---       ---       ---                  
6         bæʃ       ---       ---       ---       ---                  

 
index     world     root      POS       pos       future     
0         sh·       ---       ---       ---       ---                  
1         ʃɪre      ---       ---       ---       ---                  
2         rʊzɑnæ    ---       ---       ---       ---                  
3         nadɑred   ---       ---       ---       ---                  
4         mæhæle    ---       ---       ---       ---                  
5         ʔæmɑ      ---       ---       ---       ---                  
6         jæʔnɪ     ---       ---       ---       ---                  
7         ʔæz       ---       ---       ---       ---                  
8         væqtɪ     ---       ---       ---       ---                  
9         ʔendɑ     ---       ---       ---       ---                  
10        bode      ---       ---       ---       ---                  

 
index     world     root      POS       pos       future     
0         h·        ---       ---       ---       ---                  
1         ʔæsæn     ---       ---       ---       ---                  
2         ʔɪ        ---       ---       ---       ---                  
3         sʊperɪje  ---       ---       ---       ---                  
4         χejlɪ     ---       ---       ---       ---                  
5         tʃɪjɑʃ    ---       ---       ---       ---                  
6         χʊb       ---       ---       ---       ---                  
7         nɪ        ---       ---       ---       ---                  

 
index     world     root      POS       pos       future     
0         sh·       ---       ---       ---       ---                  
1         bædbæχt   ---       ---       ---       ---                  
2         hæme      ---       ---       ---       ---                  
3         tʃɪ       ---       ---       ---       ---                  
4         ʃæ        ---       ---       ---       ---                  

 
index     world     root      POS       pos       future     
0         h·        ---       ---       ---       ---                  
1         hæme      ---       ---       ---       ---                  
2         tʃɪ       ---       ---       ---       ---                  
3         ʃæ        ---       ---       ---       ---                  
4         vælɪ      ---       ---       ---       ---                  

 
index     world     root      POS       pos       future     
0         sh·       ---       ---       ---       ---                  
1         hæme      ---       ---       ---       ---                  
2         tʃɪ       ---       ---       ---       ---                  
3         ʃæ        ---       ---       ---       ---                  
4         vælɪ      ---       ---       ---       ---                  
5         ʃɪre      ---       ---       ---       ---                  
6         rʊzɑne    ---       ---       ---       ---                  
7         ʔæz       ---       ---       ---       ---                  
8         væqtɪ     ---       ---       ---       ---                  
9         koronɑ    ---       ---       ---       ---                  
10        ʔonde     ---       ---       ---       ---                  
11        ʃɪre      ---       ---       ---       ---                  
12        rʊzɑnæ    ---       ---       ---       ---                  
13        neʔævordoj---       ---       ---       ---                  

 
index     world     root      POS       pos       future     
0         ft·       ---       ---       ---       ---                  
1         hɑ        ---       ---       ---       ---                  
2         mo        ---       ---       ---       ---                  
3         ke        ---       ---       ---       ---                  
4         kolæn     ---       ---       ---       ---                  
5         ʃɪre      ---       ---       ---       ---                  
6         gow       ---       ---       ---       ---                  
7         mæχorde   ---       ---       ---       ---                  
8         ʔɪ        ---       ---       ---       ---                  
9         tʃænd     ---       ---       ---       ---                  
10        væqt      ---       ---       ---       ---                  
11        hæmæʃ     ---       ---       ---       ---                  

 
index     world     root      POS       pos       future     
0         h·        ---       ---       ---       ---                  
1         ʃɪvɑ      ---       ---       ---       ---                  
2         deqæt     ---       ---       ---       ---                  
3         boko      ---       ---       ---       ---                  
4         lɪvɑnɪjɑ  ---       ---       ---       ---                  
5         hæm       ---       ---       ---       ---                  
6         bɑjæd     ---       ---       ---       ---                  
7         ʔe        ---       ---       ---       ---                  
8         dotɑʃ     ---       ---       ---       ---                  
9         vɑhereʃ   ---       ---       ---       ---                  
10        ke        ---       ---       ---       ---                  
11        hærtʃɪ    ---       ---       ---       ---                  
12        hæ        ---       ---       ---       ---                  

 
index     world     root      POS       pos       future     
0         sa·       ---       ---       ---       ---                  
1         mɑ        ---       ---       ---       ---                  

 
index     world     root      POS       pos       future     
0         ft·       ---       ---       ---       ---                  
1         hɑ        ---       ---       ---       ---                  

 
index     world     root      POS       pos       future     
0         sa·       ---       ---       ---       ---                  
1         ʃɑmpʊm    ---       ---       ---       ---                  
2         bɪjɑ      ---       ---       ---       ---                  

 
index     world     root      POS       pos       future     
0         sh·       ---       ---       ---       ---                  
1         bɪjɑ      ---       ---       ---       ---                  
2         hɑlɑ      ---       ---       ---       ---                  
3         pændʒ     ---       ---       ---       ---                  
4         deqe      ---       ---       ---       ---                  
5         bʊ        ---       ---       ---       ---                  

 
index     world     root      POS       pos       future     
0         ft·       ---       ---       ---       ---                  
1         sepehr    ---       ---       ---       ---                  
2         ʃɑmpʊʃ    ---       ---       ---       ---                  
3         bobo      ---       ---       ---       ---                  

 
index     world     root      POS       pos       future     
0         h·        ---       ---       ---       ---                  
1         hænʊ      ---       ---       ---       ---                  
2         ʃɑmpʊ     ---       ---       ---       ---                  
3         ʔotnezæte؟---       ---       ---       ---                  
4         pændʒ     ---       ---       ---       ---                  
5         deqæt     ---       ---       ---       ---                  
6         tæmʊm     ---       ---       ---       ---                  
7         bʊ        ---       ---       ---       ---                  

 
index     world     root      POS       pos       future     
0         ft·       ---       ---       ---       ---                  
1         tæmʊmoʃ   ---       ---       ---       ---                  
2         ke        ---       ---       ---       ---                  
3         tʃɑʃt     ---       ---       ---       ---                  
4         bætʃom    ---       ---       ---       ---                  

 
index     world     root      POS       pos       future     
0         h·        ---       ---       ---       ---                  
1         jæk       ---       ---       ---       ---                  
2         loqme     ---       ---       ---       ---                  
3         nehod     ---       ---       ---       ---                  
4         negɑt     ---       ---       ---       ---                  
5         ʔomkæ     ---       ---       ---       ---                  
6         tʃɑrtɑ    ---       ---       ---       ---                  
7         tʃʊb      ---       ---       ---       ---                  
8         ʔotχæ     ---       ---       ---       ---                  

 
index     world     root      POS       pos       future     
0         sep·      ---       ---       ---       ---                  
1         tʃon      ---       ---       ---       ---                  
2         bælæd     ---       ---       ---       ---                  
3         nebodom   ---       ---       ---       ---                  
4         bɑ        ---       ---       ---       ---                  
5         ʔɪ        ---       ---       ---       ---                  
6         tʃʊbe     ---       ---       ---       ---                  

 
index     world     root      POS       pos       future     
0         h·        ---       ---       ---       ---                  
1         ʃɪvɑ      ---       ---       ---       ---                  
2         ʃɪvɑ      ---       ---       ---       ---                  
3         hævɑsot   ---       ---       ---       ---                  
4         bebeX     ---       ---       ---       ---                  
5         tɑ        ---       ---       ---       ---                  
6         nendessod ---       ---       ---       ---                  
7         boχo      ---       ---       ---       ---                  

 
index     world     root      POS       pos       future     
0         sep·      ---       ---       ---       ---                  
1         tʃe       ---       ---       ---       ---                  
2         boborom؟  ---       ---       ---       ---                  
3         ʃɑmpʊ؟    ---       ---       ---       ---                  

 
index     world     root      POS       pos       future     
0         ft·       ---       ---       ---       ---                  
1         ʃɑmpʊ     ---       ---       ---       ---                  
2         rʊje      ---       ---       ---       ---                  
3         dæsʃʊjɪ   ---       ---       ---       ---                  
4         færæŋgɪ   ---       ---       ---       ---                  
5         nædehɑ    ---       ---       ---       ---                  

 
index     world     root      POS       pos       future     
0         sep·      ---       ---       ---       ---                  
1         hæmɪ      ---       ---       ---       ---                  
2         zereʃkɪjeho---       ---       ---       ---                  
3         sefɪde؟   ---       ---       ---       ---                  

 
index     world     root      POS       pos       future     
0         ft·       ---       ---       ---       ---                  
1         hɑ        ---       ---       ---       ---                  
2         sefɪde    ---       ---       ---       ---                  

 
index     world     root      POS       pos       future     
0         h·        ---       ---       ---       ---                  
1         ʔɪ        ---       ---       ---       ---                  
2         vɑnɪl     ---       ---       ---       ---                  
3         bʊ؟       ---       ---       ---       ---                  

 
index     world     root      POS       pos       future     
0         ft·       ---       ---       ---       ---                  
1         ɑre       ---       ---       ---       ---                  

 
index     world     root      POS       pos       future     
0         sep·      ---       ---       ---       ---                  
1         ʔɪke      ---       ---       ---       ---                  
2         hæm       ---       ---       ---       ---                  
3         ʔenkɑn    ---       ---       ---       ---                  

 
index     world     root      POS       pos       future     
0         ft·       ---       ---       ---       ---                  
1         næ        ---       ---       ---       ---                  
2         ʔonkɑj    ---       ---       ---       ---                  
3         ʔerʊz     ---       ---       ---       ---                  
4         ʔomborde  ---       ---       ---       ---                  

 
index     world     root      POS       pos       future     
0         h·        ---       ---       ---       ---                  
1         ʃʊ        ---       ---       ---       ---                  
2         hɑzɑ؟     ---       ---       ---       ---                  

 
index     world     root      POS       pos       future     
0         ft·       ---       ---       ---       ---                  
1         hɪl       ---       ---       ---       ---                  

 
index     world     root      POS       pos       future     
0         h·        ---       ---       ---       ---                  
1         hɪl؟      ---       ---       ---       ---                  
2         mæko      ---       ---       ---       ---                  
3         næX       ---       ---       ---       ---                  
4         helæm     ---       ---       ---       ---                  
5         ʔoʃrɪχt   ---       ---       ---       ---                  
6         ʃæte      ---       ---       ---       ---                  
7         ʃɪvɑ      ---       ---       ---       ---                  
8         ʃæjɑd     ---       ---       ---       ---                  
9         dɑX       ---       ---       ---       ---                  
10        dɑdɑ      ---       ---       ---       ---                  
11        ʔævæzot   ---       ---       ---       ---                  
12        kerde؟    ---       ---       ---       ---                  

 
index     world     root      POS       pos       future     
0         sh·       ---       ---       ---       ---                  
1         hærɪr     ---       ---       ---       ---                  
2         χɑteroʃ   ---       ---       ---       ---                  
3         ʔomnɑj    ---       ---       ---       ---                  

 
index     world     root      POS       pos       future     
0         h·        ---       ---       ---       ---                  
1         vɑj       ---       ---       ---       ---                  
2         næ        ---       ---       ---       ---                  
3         mo        ---       ---       ---       ---                  
4         golɑb     ---       ---       ---       ---                  
5         χejlɪ     ---       ---       ---       ---                  
6         dʊst      ---       ---       ---       ---                  
7         dɑræm     ---       ---       ---       ---                  

 
index     world     root      POS       pos       future     
0         sh·       ---       ---       ---       ---                  
1         ʔæfæhmeʃ  ---       ---       ---       ---                  

 
index     world     root      POS       pos       future     
0         h·        ---       ---       ---       ---                  
1         mo        ---       ---       ---       ---                  
2         ʔɑʃeqe    ---       ---       ---       ---                  
3         golɑbom   ---       ---       ---       ---                  

 
index     world     root      POS       pos       future     
0         sh·       ---       ---       ---       ---                  
1         mese      ---       ---       ---       ---                  
2         ʔædvɪjæ   ---       ---       ---       ---                  
3         dɑχele    ---       ---       ---       ---                  
4         kejk      ---       ---       ---       ---                  
5         ʔækenom   ---       ---       ---       ---                  

 
index     world     root      POS       pos       future     
0         h·        ---       ---       ---       ---                  
1         mo        ---       ---       ---       ---                  
2         hæm       ---       ---       ---       ---                  
3         hel       ---       ---       ---       ---                  
4         dʊst      ---       ---       ---       ---                  
5         ʔomnɪ     ---       ---       ---       ---                  
6         vælɪ      ---       ---       ---       ---                  
7         golɑb     ---       ---       ---       ---                  
8         χejlɪ     ---       ---       ---       ---                  

 
index     world     root      POS       pos       future     
0         ft·       ---       ---       ---       ---                  
1         hɑlɑ      ---       ---       ---       ---                  
2         moʃkele   ---       ---       ---       ---                  
3         χotʊʔæ    ---       ---       ---       ---                  

 
index     world     root      POS       pos       future     
0         h·        ---       ---       ---       ---                  
1         jekæm     ---       ---       ---       ---                  
2         zɪre      ---       ---       ---       ---                  
3         hæm       ---       ---       ---       ---                  
4         bɪrɪz     ---       ---       ---       ---                  

 
index     world     root      POS       pos       future     
0         sep·      ---       ---       ---       ---                  
1         mɑmɑ      ---       ---       ---       ---                  
2         tʃe       ---       ---       ---       ---                  
3         dorost    ---       ---       ---       ---                  
4         kerdɑj؟   ---       ---       ---       ---                  

 
index     world     root      POS       pos       future     
0         ft·       ---       ---       ---       ---                  
1         kejk      ---       ---       ---       ---                  
2         mɑmɑn     ---       ---       ---       ---                  

 
index     world     root      POS       pos       future     
0         h·        ---       ---       ---       ---                  
1         ʔændomɪ   ---       ---       ---       ---                  
2         ʃæh       ---       ---       ---       ---                  
3         beleze    ---       ---       ---       ---                  
4         ro        ---       ---       ---       ---                  
5         ʔændomɪʃX ---       ---       ---       ---                  
6         degæ      ---       ---       ---       ---                  
7         tʃʊbeʃæX  ---       ---       ---       ---                  
8         ʃɪke      ---       ---       ---       ---                  

 
index     world     root      POS       pos       future     
0         ft·       ---       ---       ---       ---                  
1         væ        ---       ---       ---       ---                  
2         tæmɑm     ---       ---       ---       ---                  

 
index     world     root      POS       pos       future     
0         h·        ---       ---       ---       ---                  
1         χælɑs     ---       ---       ---       ---                  

 
index     world     root      POS       pos       future     
0         sh·       ---       ---       ---       ---                  
1         ʔɑrd      ---       ---       ---       ---                  

 
index     world     root      POS       pos       future     
0         h·        ---       ---       ---       ---                  
1         ʔoʃrɪχtX  ---       ---       ---       ---                  
2         ʔoʃnerɪχt؟---       ---       ---       ---                  
3         ke        ---       ---       ---       ---                  
4         tʃe؟      ---       ---       ---       ---                  

 
index     world     root      POS       pos       future     
0         ft·       ---       ---       ---       ---                  
1         mɑ        ---       ---       ---       ---                  
2         tʃe       ---       ---       ---       ---                  
3         ʔækenom   ---       ---       ---       ---                  
4         mæsælæn   ---       ---       ---       ---                  
5         ʔædonom   ---       ---       ---       ---                  
6         ʔɑrdom    ---       ---       ---       ---                  
7         kæme      ---       ---       ---       ---                  
8         mæsælæn   ---       ---       ---       ---                  
9         ʔɑrdom    ---       ---       ---       ---                  
10        kæmeX     ---       ---       ---       ---                  
11        ʔɑrde     ---       ---       ---       ---                  
12        gændomɪ   ---       ---       ---       ---                  
13        neʃɑseʔɪ  ---       ---       ---       ---                  

 
index     world     root      POS       pos       future     
0         h·        ---       ---       ---       ---                  
1         ʔɑrde     ---       ---       ---       ---                  
2         noχod     ---       ---       ---       ---                  
3         nekeneʃX  ---       ---       ---       ---                  
4         ʔɑrdot    ---       ---       ---       ---                  
5         kæm       ---       ---       ---       ---                  
6         nɪ        ---       ---       ---       ---                  
7         ke        ---       ---       ---       ---                  
8         ʔælʔɑn    ---       ---       ---       ---                  

 
index     world     root      POS       pos       future     
0         sh·       ---       ---       ---       ---                  
1         zætoj     ---       ---       ---       ---                  

 
index     world     root      POS       pos       future     
0         h·        ---       ---       ---       ---                  
1         χæʃe؟     ---       ---       ---       ---                  

 
index     world     root      POS       pos       future     
0         ft·       ---       ---       ---       ---                  
1         tʃænd     ---       ---       ---       ---                  
2         rʊz       ---       ---       ---       ---                  
3         pɪs       ---       ---       ---       ---                  
4         mo        ---       ---       ---       ---                  
5         je        ---       ---       ---       ---                  
6         gærdgɪrɪjo---       ---       ---       ---                  

 
index     world     root      POS       pos       future     
0         h·        ---       ---       ---       ---                  
1         dʒɑrʊ     ---       ---       ---       ---                  

 
index     world     root      POS       pos       future     
0         ft·       ---       ---       ---       ---                  
1         kɑmel     ---       ---       ---       ---                  
2         ʔomkerdeX ---       ---       ---       ---                  
3         gærdgɪrɪ  ---       ---       ---       ---                  
4         kɑmelX    ---       ---       ---       ---                  
5         gɑz       ---       ---       ---       ---                  
6         dærbɪjɑrom---       ---       ---       ---                  

 
index     world     root      POS       pos       future     
0         sh·       ---       ---       ---       ---                  
1         bæse      ---       ---       ---       ---                  
2         næX       ---       ---       ---       ---                  
3         nɪ؟       ---       ---       ---       ---                  
4         mɑ        ---       ---       ---       ---                  
5         ʔɪjɑmʊ    ---       ---       ---       ---                  
6         χærɑb     ---       ---       ---       ---                  
7         ʃode      ---       ---       ---       ---                  

 
index     world     root      POS       pos       future     
0         h·        ---       ---       ---       ---                  
1         ʔæmɑ      ---       ---       ---       ---                  
2         ʔɪjɑmʊ    ---       ---       ---       ---                  
3         kɑr       ---       ---       ---       ---                  
4         ʔækod     ---       ---       ---       ---                  
5         vælɪ      ---       ---       ---       ---                  
6         fek       ---       ---       ---       ---                  
7         mæke      ---       ---       ---       ---                  
8         bɑjæd     ---       ---       ---       ---                  
9         bɑ        ---       ---       ---       ---                  
10        hæmzæne   ---       ---       ---       ---                  
11        dæstɪ     ---       ---       ---       ---                  
12        hæm       ---       ---       ---       ---                  
13        bezeneʃ   ---       ---       ---       ---                  

 
index     world     root      POS       pos       future     
0         sh·       ---       ---       ---       ---                  
1         jekæmɪ    ---       ---       ---       ---                  
2         sʊrɑχ     ---       ---       ---       ---                  
3         bode      ---       ---       ---       ---                  

 
index     world     root      POS       pos       future     
0         ft·       ---       ---       ---       ---                  
1         sepehr    ---       ---       ---       ---                  

 
index     world     root      POS       pos       future     
0         sep·      ---       ---       ---       ---                  
1         bæle      ---       ---       ---       ---                  

 
index     world     root      POS       pos       future     
0         ft·       ---       ---       ---       ---                  
1         je        ---       ---       ---       ---                  
2         dʊne      ---       ---       ---       ---                  
3         ʔɪ        ---       ---       ---       ---                  
4         setɑjɪ    ---       ---       ---       ---                  
5         mæj       ---       ---       ---       ---                  
6         mɑmɑnX    ---       ---       ---       ---                  
7         hɑ        ---       ---       ---       ---                  
8         ʔɪ        ---       ---       ---       ---                  
9         hæmzæne   ---       ---       ---       ---                  
10        ʃomɑ      ---       ---       ---       ---                  
11        mæge      ---       ---       ---       ---                  
12        hæmzæn    ---       ---       ---       ---                  
13        tonɪ؟     ---       ---       ---       ---                  

 
index     world     root      POS       pos       future     
0         h·        ---       ---       ---       ---                  
1         mo        ---       ---       ---       ---                  
2         ʔetefɑqæn ---       ---       ---       ---                  
3         te        ---       ---       ---       ---                  
4         ʔono      ---       ---       ---       ---                  
5         ʔomke     ---       ---       ---       ---                  
6         ʔehsɑs    ---       ---       ---       ---                  
7         ʔomke     ---       ---       ---       ---                  
8         χejlɪ     ---       ---       ---       ---                  
9         χʊb       ---       ---       ---       ---                  
10        bʊ        ---       ---       ---       ---                  
11        jæʔnɪ     ---       ---       ---       ---                  
12        bæd       ---       ---       ---       ---                  
13        nebʊ      ---       ---       ---       ---                  
14        jebɑr     ---       ---       ---       ---                  
15        ke        ---       ---       ---       ---                  
16        dorost    ---       ---       ---       ---                  
17        ʔomke     ---       ---       ---       ---                  
18        hæmʊ      ---       ---       ---       ---                  
19        moqeʔɪ    ---       ---       ---       ---                  
20        ke        ---       ---       ---       ---                  
21        ʔæzæt     ---       ---       ---       ---                  
22        dæstʊr    ---       ---       ---       ---                  
23        ʔomgeret  ---       ---       ---       ---                  

 
index     world     root      POS       pos       future     
0         ft·       ---       ---       ---       ---                  
1         ʔɑre      ---       ---       ---       ---                  
2         mɑmɑ      ---       ---       ---       ---                  

 
index     world     root      POS       pos       future     
0         sep·      ---       ---       ---       ---                  
1         bɪjɑ      ---       ---       ---       ---                  

 
index     world     root      POS       pos       future     
0         h·        ---       ---       ---       ---                  
1         be        ---       ---       ---       ---                  
2         næzærom   ---       ---       ---       ---                  
3         sepehr    ---       ---       ---       ---                  
4         zæŋg      ---       ---       ---       ---                  
5         ʔoʃzæt    ---       ---       ---       ---                  
6         ʔoʃgot    ---       ---       ---       ---                  
7         sæmɑ      ---       ---       ---       ---                  
8         tʃɑrtɑ    ---       ---       ---       ---                  
9         dorost    ---       ---       ---       ---                  
10        boko      ---       ---       ---       ---                  
11        mo        ---       ---       ---       ---                  
12        hæm       ---       ---       ---       ---                  
13        ʔondɑm    ---       ---       ---       ---                  

 
index     world     root      POS       pos       future     
0         sh·       ---       ---       ---       ---                  
1         næ        ---       ---       ---       ---                  
2         vel       ---       ---       ---       ---                  
3         nekerdɑʃɑ ---       ---       ---       ---                  

 
index     world     root      POS       pos       future     
0         h·        ---       ---       ---       ---                  
1         næ        ---       ---       ---       ---                  
2         vel       ---       ---       ---       ---                  
3         nekerdoj  ---       ---       ---       ---                  
4         hej       ---       ---       ---       ---                  
5         tʃedoj    ---       ---       ---       ---                  
6         ʔondoj    ---       ---       ---       ---                  
7         χærdoj    ---       ---       ---       ---                  

 
index     world     root      POS       pos       future     
0         ft·       ---       ---       ---       ---                  
1         tʃɑrtɑ    ---       ---       ---       ---                  
2         bærej     ---       ---       ---       ---                  
3         je        ---       ---       ---       ---                  
4         næfære    ---       ---       ---       ---                  
5         te        ---       ---       ---       ---                  
6         χʊneje    ---       ---       ---       ---                  
7         mo        ---       ---       ---       ---                  

 
index     world     root      POS       pos       future     
0         h·        ---       ---       ---       ---                  
1         tʃɑrtɑ    ---       ---       ---       ---                  
2         mɑle      ---       ---       ---       ---                  
3         je        ---       ---       ---       ---                  
4         næfære    ---       ---       ---       ---                  

 
index     world     root      POS       pos       future     
0         ft·       ---       ---       ---       ---                  
1         ʔændomɪ   ---       ---       ---       ---                  
2         ʔɪrɑnɪje  ---       ---       ---       ---                  
3         toχærde   ---       ---       ---       ---                  
4         tɑhɑlɑ؟   ---       ---       ---       ---                  

 
index     world     root      POS       pos       future     
0         h·        ---       ---       ---       ---                  
1         voj       ---       ---       ---       ---                  
2         ʔomχærde  ---       ---       ---       ---                  
3         hɑ        ---       ---       ---       ---                  

 
index     world     root      POS       pos       future     
0         sh·       ---       ---       ---       ---                  
1         nʊdelɪt   ---       ---       ---       ---                  

 
index     world     root      POS       pos       future     
0         h·        ---       ---       ---       ---                  
1         χejlɪ     ---       ---       ---       ---                  
2         hæm       ---       ---       ---       ---                  
3         sæʔj      ---       ---       ---       ---                  
4         ʔomke     ---       ---       ---       ---                  
5         tʃɪz      ---       ---       ---       ---                  
6         mɪz       ---       ---       ---       ---                  
7         bezenom   ---       ---       ---       ---                  
8         χæʃ       ---       ---       ---       ---                  
9         bebe      ---       ---       ---       ---                  
10        vælɪ      ---       ---       ---       ---                  
11        nebʊ      ---       ---       ---       ---                  

 
index     world     root      POS       pos       future     
0         ft·       ---       ---       ---       ---                  
1         mo        ---       ---       ---       ---                  
2         jebɑr     ---       ---       ---       ---                  
3         dorost    ---       ---       ---       ---                  
4         ʔomke     ---       ---       ---       ---                  
5         bæd       ---       ---       ---       ---                  
6         nebʊ      ---       ---       ---       ---                  
7         ʔælbætæ   ---       ---       ---       ---                  

 
index     world     root      POS       pos       future     
0         sh·       ---       ---       ---       ---                  
1         χɑteroʃ   ---       ---       ---       ---                  
2         mæj       ---       ---       ---       ---                  
3         mo        ---       ---       ---       ---                  
4         nʊdelɪt   ---       ---       ---       ---                  
5         dʊst      ---       ---       ---       ---                  
6         ʔomæ      ---       ---       ---       ---                  

 
index     world     root      POS       pos       future     
0         h·        ---       ---       ---       ---                  
1         ʔæsæn     ---       ---       ---       ---                  
2         ʔomnɑʃɑ   ---       ---       ---       ---                  
3         boχorom   ---       ---       ---       ---                  

 
index     world     root      POS       pos       future     
0         sh·       ---       ---       ---       ---                  
1         jæk       ---       ---       ---       ---                  
2         mɑrke     ---       ---       ---       ---                  
3         degæ      ---       ---       ---       ---                  
4         hæ        ---       ---       ---       ---                  
5         ʔon       ---       ---       ---       ---                  
6         χejlɪ     ---       ---       ---       ---                  
7         χæʃe      ---       ---       ---       ---                  

 
index     world     root      POS       pos       future     
0         ft·       ---       ---       ---       ---                  
1         mɑle      ---       ---       ---       ---                  
2         hɑtɪ      ---       ---       ---       ---                  
3         kɑrɑ      ---       ---       ---       ---                  

 
index     world     root      POS       pos       future     
0         h·        ---       ---       ---       ---                  
1         nʊdelɪte  ---       ---       ---       ---                  
2         ʔetefɑqæn ---       ---       ---       ---                  
3         næχæʃe    ---       ---       ---       ---                  
4         jæʔnɪ     ---       ---       ---       ---                  
5         bɪ        ---       ---       ---       ---                  
6         mæzæj     ---       ---       ---       ---                  

 
index     world     root      POS       pos       future     
0         sh·       ---       ---       ---       ---                  
1         nesbæt    ---       ---       ---       ---                  
2         be        ---       ---       ---       ---                  
3         χɑredʒɪ   ---       ---       ---       ---                  
4         χo        ---       ---       ---       ---                  
5         mæʔlʊm    ---       ---       ---       ---                  
6         vælɪ      ---       ---       ---       ---                  
7         bædæm     ---       ---       ---       ---                  
8         nɪ        ---       ---       ---       ---                  
9         jæʔnɪ     ---       ---       ---       ---                  
10        ke        ---       ---       ---       ---                  
11        nɑbe      ---       ---       ---       ---                  
12        χærdæ     ---       ---       ---       ---                  

 
index     world     root      POS       pos       future     
0         h·        ---       ---       ---       ---                  
1         hæmæje    ---       ---       ---       ---                  
2         hæmeje    ---       ---       ---       ---                  
3         mævɑdot   ---       ---       ---       ---                  
4         jedʒɑt    ---       ---       ---       ---                  
5         rɪχt؟     ---       ---       ---       ---                  
6         dɑdɑX     ---       ---       ---       ---                  
7         hæmeje    ---       ---       ---       ---                  
8         mævɑde    ---       ---       ---       ---                  
9         jedʒɑ     ---       ---       ---       ---                  
10        ʔotrɪχt؟  ---       ---       ---       ---                  

 
index     world     root      POS       pos       future     
0         ft·       ---       ---       ---       ---                  
1         hɑ        ---       ---       ---       ---                  
2         ʔɑrdeʔo   ---       ---       ---       ---                  
3         bɪkɪŋg    ---       ---       ---       ---                  
4         pʊdre     ---       ---       ---       ---                  

 
index     world     root      POS       pos       future     
0         sep·      ---       ---       ---       ---                  
1         hɑlɑ      ---       ---       ---       ---                  
2         bebɪn     ---       ---       ---       ---                  
3         kejk      ---       ---       ---       ---                  
4         ʔɑmɑde    ---       ---       ---       ---                  
5         bʊ        ---       ---       ---       ---                  
6         sæmɑ      ---       ---       ---       ---                  
7         dær       ---       ---       ---       ---                  
8         nɑdɑ      ---       ---       ---       ---                  

 
index     world     root      POS       pos       future     
0         h·        ---       ---       ---       ---                  
1         sæmɑ      ---       ---       ---       ---                  
2         be        ---       ---       ---       ---                  
3         næzærom   ---       ---       ---       ---                  
4         zʊtær     ---       ---       ---       ---                  
5         cedɑ      ---       ---       ---       ---                  
6         dær       ---       ---       ---       ---                  

 
index     world     root      POS       pos       future     
0         sh·       ---       ---       ---       ---                  
1         tʃon      ---       ---       ---       ---                  
2         nʊdelot   ---       ---       ---       ---                  
3         tæmɑm     ---       ---       ---       ---                  
4         bodoj     ---       ---       ---       ---                  

 
index     world     root      POS       pos       future     
0         h·        ---       ---       ---       ---                  
1         ʔæmɑ      ---       ---       ---       ---                  
2         kɑrɪ      ---       ---       ---       ---                  
3         monɪjɑ    ---       ---       ---       ---                  

 
index     world     root      POS       pos       future     
0         sh·       ---       ---       ---       ---                  
1         kæm       ---       ---       ---       ---                  
2         χærdoj    ---       ---       ---       ---                  
3         mæge؟     ---       ---       ---       ---                  
4         χejlɪ     ---       ---       ---       ---                  
5         neχærdɑm  ---       ---       ---       ---                  

 
index     world     root      POS       pos       future     
0         h·        ---       ---       ---       ---                  
1         bælædæm   ---       ---       ---       ---                  
2         nɪjeʃ     ---       ---       ---       ---                  
3         tæj       ---       ---       ---       ---                  
4         tʃæŋgɑl   ---       ---       ---       ---                  
5         bɪjɑrom؟  ---       ---       ---       ---                  

 
index     world     root      POS       pos       future     
0         sep·      ---       ---       ---       ---                  
1         nɪgɑh     ---       ---       ---       ---                  
2         kon       ---       ---       ---       ---                  

 
index     world     root      POS       pos       future     
0         h·        ---       ---       ---       ---                  
1         zæhmætotæhɑX---       ---       ---       ---                  
2         sæmɑ      ---       ---       ---       ---                  
3         bedɑ      ---       ---       ---       ---                  
4         ʔæzɪzom   ---       ---       ---       ---                  
5         bedɑ      ---       ---       ---       ---                  
6         boχo      ---       ---       ---       ---                  
7         ʔæmɑ      ---       ---       ---       ---                  
8         te        ---       ---       ---       ---                  
9         delemʊʔæ  ---       ---       ---       ---                  
10        hæm       ---       ---       ---       ---                  
11        ʔendɑ     ---       ---       ---       ---                  

 
index     world     root      POS       pos       future     
0         sep·      ---       ---       ---       ---                  
1         kɪje؟     ---       ---       ---       ---                  
2         mɑmɑnɪ؟   ---       ---       ---       ---                  

 
index     world     root      POS       pos       future     
0         ft·       ---       ---       ---       ---                  
1         hɑ        ---       ---       ---       ---                  

 
index     world     root      POS       pos       future     
0         sep·      ---       ---       ---       ---                  
1         gotɑm     ---       ---       ---       ---                  
2         tʃerɑ     ---       ---       ---       ---                  
3         dæstom    ---       ---       ---       ---                  
4         kæbʊd     ---       ---       ---       ---                  
5         bode      ---       ---       ---       ---                  

 
index     world     root      POS       pos       future     
0         ft·       ---       ---       ---       ---                  
1         tʃerɑ     ---       ---       ---       ---                  

 
index     world     root      POS       pos       future     
0         sh·       ---       ---       ---       ---                  
1         mɑle      ---       ---       ---       ---                  
2         nʊdel     ---       ---       ---       ---                  
3         χærdæj    ---       ---       ---       ---                  
4         zɪjɑdɪjæ  ---       ---       ---       ---                  

 
index     world     root      POS       pos       future     
0         sep·      ---       ---       ---       ---                  
1         dʒɑje     ---       ---       ---       ---                  
2         dændʊne   ---       ---       ---       ---                  
3         bɑbɑjɪjæ  ---       ---       ---       ---                  

 
index     world     root      POS       pos       future     
0         ft·       ---       ---       ---       ---                  
1         bebæχʃɪd  ---       ---       ---       ---                  
2         h·        ---       ---       ---       ---                  
3         ʔæzɪzom   ---       ---       ---       ---                  
4         dændʊn    ---       ---       ---       ---                  
5         χoroʃ     ---       ---       ---       ---                  
6         χʊbe      ---       ---       ---       ---                  
7         sepehr    ---       ---       ---       ---                  
8         meske     ---       ---       ---       ---                  

 
index     world     root      POS       pos       future     
0         sh·       ---       ---       ---       ---                  
1         ʔæz       ---       ---       ---       ---                  
2         bætʃegɪ   ---       ---       ---       ---                  
3         hæmɪ      ---       ---       ---       ---                  
4         ʔendɑ     ---       ---       ---       ---                  
5         χoʃʊ      ---       ---       ---       ---                  
6         ʃoʔæveste ---       ---       ---       ---                  
7         bærɑʃ     ---       ---       ---       ---                  

 
index     world     root      POS       pos       future     
0         ft·       ---       ---       ---       ---                  
1         særɪ      ---       ---       ---       ---                  
2         mɑmɑn     ---       ---       ---       ---                  

 
index     world     root      POS       pos       future     
0         sam·      ---       ---       ---       ---                  
1         tʃe       ---       ---       ---       ---                  
2         bopʊʃom؟  ---       ---       ---       ---                  

 
index     world     root      POS       pos       future     
0         h·        ---       ---       ---       ---                  
1         hæmɪ      ---       ---       ---       ---                  
2         χʊbe      ---       ---       ---       ---                  

 
index     world     root      POS       pos       future     
0         sh·       ---       ---       ---       ---                  
1         lebɑse    ---       ---       ---       ---                  
2         mo        ---       ---       ---       ---                  
3         dærbɪjɑrom؟---       ---       ---       ---                  

 
index     world     root      POS       pos       future     
0         h·        ---       ---       ---       ---                  
1         je        ---       ---       ---       ---                  
2         mɑnto     ---       ---       ---       ---                  
3         ʔobɪ      ---       ---       ---       ---                  
4         ʃælʊ      ---       ---       ---       ---                  

 
index     world     root      POS       pos       future     
0         ft·       ---       ---       ---       ---                  
1         jekɪ      ---       ---       ---       ---                  
2         ʔæz       ---       ---       ---       ---                  
3         ʔɪn       ---       ---       ---       ---                  
4         lebɑsɪjɑjɪ---       ---       ---       ---                  
5         ke        ---       ---       ---       ---                  
6         hæm       ---       ---       ---       ---                  
7         ʔendɑ     ---       ---       ---       ---                  
8         bolændotæ ---       ---       ---       ---                  
9         h·        ---       ---       ---       ---                  
10        sepehr    ---       ---       ---       ---                  
11        sæmɑX     ---       ---       ---       ---                  
12        vælɪ      ---       ---       ---       ---                  
13        χodɑjɪ    ---       ---       ---       ---                  
14        χejlɪ     ---       ---       ---       ---                  
15        hævɑsomæ  ---       ---       ---       ---                  

 
index     world     root      POS       pos       future     
0         sam·      ---       ---       ---       ---                  
1         bɑʃ       ---       ---       ---       ---                  
2         tɑ        ---       ---       ---       ---                  
3         beχæ      ---       ---       ---       ---                  
4         ʔeʃkɑloʃ  ---       ---       ---       ---                  
5         nɪ        ---       ---       ---       ---                  

 
index     world     root      POS       pos       future     
0         sh·       ---       ---       ---       ---                  
1         ʔoʃχærde  ---       ---       ---       ---                  
2         ʔæzɪzom   ---       ---       ---       ---                  
3         negærɑn   ---       ---       ---       ---                  
4         mæbæʃX    ---       ---       ---       ---                  
5         zɪjɑdæm   ---       ---       ---       ---                  
6         χærdɑd    ---       ---       ---       ---                  

 
index     world     root      POS       pos       future     
0         sep·      ---       ---       ---       ---                  
1         ʔɪ        ---       ---       ---       ---                  
2         hæmæ      ---       ---       ---       ---                  
3         loqmæm    ---       ---       ---       ---                  
4         χæ        ---       ---       ---       ---                  
5         je        ---       ---       ---       ---                  
6         loqme     ---       ---       ---       ---                  
7         bej       ---       ---       ---       ---                  
8         sæmɑ      ---       ---       ---       ---                  
9         hɑde      ---       ---       ---       ---                  

 
index     world     root      POS       pos       future     
0         h·        ---       ---       ---       ---                  
1         ʔæzɪzom   ---       ---       ---       ---                  

 
index     world     root      POS       pos       future     
0         sh·       ---       ---       ---       ---                  
1         ʔɑχej     ---       ---       ---       ---                  

 
index     world     root      POS       pos       future     
0         h·        ---       ---       ---       ---                  
1         hæmæʃ     ---       ---       ---       ---                  
2         do        ---       ---       ---       ---                  
3         tɑ        ---       ---       ---       ---                  
4         loqmæʃ    ---       ---       ---       ---                  
5         χæ        ---       ---       ---       ---                  

 
index     world     root      POS       pos       future     

 
